Introduction to the tidyverse
…
# The data
---

# roll

Number of school kids by school, gender, ethnic group and level in 2017.

Each row represents a school, gender, ethnic group and level.

```r
roll
```

```
# A tibble: 99,021 x 5
   School            Gender EthnicGroup Level  Students
   <chr>             <chr>  <chr>       <chr>     <dbl>
 1 Abbotsford School Female Asian       Year 1        1
 2 Abbotsford School Female European    Year 1       19
 3 Abbotsford School Male   European    Year 1       14
 4 Abbotsford School Female Māori       Year 1       10
 5 Abbotsford School Male   Māori       Year 1        6
 6 Abbotsford School Female Asian       Year 2        1
 7 Abbotsford School Female European    Year 2       15
 8 Abbotsford School Male   European    Year 2       19
 9 Abbotsford School Female Māori       Year 2        3
10 Abbotsford School Male   Māori       Year 2        2
# ... with 99,011 more rows
```

Data source: https://www.educationcounts.govt.nz/statistics/schooling/student-numbers/6028
---

# schools

Information on each school, including type, affiliation and region.

```r
schools
```

```
# A tibble: 2,530 x 12
   School Sector Type  Authority Decile SchoolGender AffiliationType
   <chr>  <chr>  <chr> <chr>      <dbl> <chr>        <chr>          
 1 Abbot… Prima… Full… State: N…      8 Co-Ed        No Affiliation 
 2 Aberd… Prima… Cont… State: N…      5 Co-Ed        No Affiliation 
 3 Aberf… Prima… Full… State: N…      2 Co-Ed        No Affiliation 
 4 ACG N… Secon… Seco… Private:…      7 Co-Ed        No Affiliation 
 5 ACG P… Compo… Comp… Private:…     NA Co-Ed        No Affiliation 
 6 ACG S… Secon… Seco… Private:…     NA Co-Ed        No Affiliation 
 7 ACG S… Compo… Comp… Private:…     NA Co-Ed        No Affiliation 
 8 ACG S… Compo… Comp… Private:…     NA Co-Ed        No Affiliation 
 9 ACG T… Compo… Comp… Private:…     NA Co-Ed        No Affiliation 
10 Addin… Prima… Cont… State: N…      3 Co-Ed        No Affiliation 
# ... with 2,520 more rows, and 5 more variables: Affiliation <chr>,
#   Definition <chr>, KuraType <chr>, RegionalCouncil <chr>,
#   TerritorialAuthority <chr>
```
…
 - It works with local data frames.
 - It works with remote database tables.
 - All using the same R code.

---

# filter

```r
roll %>% filter(EthnicGroup == "Māori", Gender == "Female")
```

```
# A tibble: 14,289 x 5
   School            Gender EthnicGroup Level  Students
   <chr>             <chr>  <chr>       <chr>     <dbl>
 1 Abbotsford School Female Māori       Year 1       10
 2 Abbotsford School Female Māori       Year 2        3
 3 Abbotsford School Female Māori       Year 3        2
 4 Abbotsford School Female Māori       Year 4        2
 5 Abbotsford School Female Māori       Year 5        5
 6 Abbotsford School Female Māori       Year 6        5
 7 Abbotsford School Female Māori       Year 7        2
 8 Abbotsford School Female Māori       Year 8        2
 9 Aberdeen School   Female Māori       Year 1       19
10 Aberdeen School   Female Māori       Year 2       16
# ... with 14,279 more rows
```

---

# filter

```r
roll %>% filter(Level == "Year 1" | Level == "Year 2",
                Gender == "Male")
```

```
# A tibble: 11,053 x 5
   School            Gender EthnicGroup Level  Students
   <chr>             <chr>  <chr>       <chr>     <dbl>
 1 Abbotsford School Male   European    Year 1       14
 2 Abbotsford School Male   Māori       Year 1        6
 3 Abbotsford School Male   European    Year 2       19
 4 Abbotsford School Male   Māori       Year 2        2
 5 Aberdeen School   Male   Asian       Year 1        6
 6 Aberdeen School   Male   European    Year 1       41
 7 Aberdeen School   Male   Māori       Year 1       20
 8 Aberdeen School   Male   Other       Year 1        4
 9 Aberdeen School   Male   Pasifika    Year 1        2
10 Aberdeen School   Male   Asian       Year 2        6
# ... with 11,043 more rows
```

---

# arrange

```r
roll %>% arrange(Gender, EthnicGroup, Level)
```

```
# A tibble: 99,021 x 5
   School                      Gender EthnicGroup Level  Students
   <chr>                       <chr>  <chr>       <chr>     <dbl>
 1 Abbotsford School           Female Asian       Year 1        1
 2 Aberdeen School             Female Asian       Year 1        5
 3 ACG Parnell College         Female Asian       Year 1        4
 4 ACG Strathallan             Female Asian       Year 1       10
 5 ACG Sunderland              Female Asian       Year 1        3
 6 Addington School            Female Asian       Year 1        6
 7 Adventure School            Female Asian       Year 1        2
 8 Aidanfield Christian School Female Asian       Year 1        4
 9 Al-Madinah School           Female Asian       Year 1       23
10 Albany School               Female Asian       Year 1       24
# ... with 99,011 more rows
```

---

# arrange

```r
roll %>% arrange(Gender, EthnicGroup, desc(Level))
```

```
# A tibble: 99,021 x 5
   School                         Gender EthnicGroup Level  Students
   <chr>                          <chr>  <chr>       <chr>     <dbl>
 1 ACG Parnell College            Female Asian       Year 9       24
 2 ACG Strathallan                Female Asian       Year 9       18
 3 ACG Sunderland                 Female Asian       Year 9        2
 4 ACG Tauranga                   Female Asian       Year 9        2
 5 Aidanfield Christian School    Female Asian       Year 9        1
 6 Al-Madinah School              Female Asian       Year 9       21
 7 Albany Junior High School      Female Asian       Year 9       19
 8 Alfriston College              Female Asian       Year 9       20
 9 Amuri Area School              Female Asian       Year 9        1
10 Ao Tawhiti Unlimited Discovery Female Asian       Year 9        1
# ... with 99,011 more rows
```
…
---

# select

```r
roll %>% select(School, EthnicGroup, Students)
```

```
# A tibble: 99,021 x 3
   School            EthnicGroup Students
   <chr>             <chr>          <dbl>
 1 Abbotsford School Asian              1
 2 Abbotsford School European          19
 3 Abbotsford School European          14
 4 Abbotsford School Māori             10
 5 Abbotsford School Māori              6
 6 Abbotsford School Asian              1
 7 Abbotsford School European          15
 8 Abbotsford School European          19
 9 Abbotsford School Māori              3
10 Abbotsford School Māori              2
# ... with 99,011 more rows
```

---

# select

```r
roll %>% select(-School)
```

```
# A tibble: 99,021 x 4
   Gender EthnicGroup Level  Students
   <chr>  <chr>       <chr>     <dbl>
 1 Female Asian       Year 1        1
 2 Female European    Year 1       19
 3 Male   European    Year 1       14
 4 Female Māori       Year 1       10
 5 Male   Māori       Year 1        6
 6 Female Asian       Year 2        1
 7 Female European    Year 2       15
 8 Male   European    Year 2       19
 9 Female Māori       Year 2        3
10 Male   Māori       Year 2        2
# ... with 99,011 more rows
```

---

# select

```r
roll %>% select(Gender:Level, Number=Students)
```

```
# A tibble: 99,021 x 4
   Gender EthnicGroup Level  Number
   <chr>  <chr>       <chr>   <dbl>
 1 Female Asian       Year 1      1
 2 Female European    Year 1     19
 3 Male   European    Year 1     14
 4 Female Māori       Year 1     10
 5 Male   Māori       Year 1      6
 6 Female Asian       Year 2      1
 7 Female European    Year 2     15
 8 Male   European    Year 2     19
 9 Female Māori       Year 2      3
10 Male   Māori       Year 2      2
# ... with 99,011 more rows
```

---

# select

```r
roll %>% select(Students, Level, everything())
```

```
# A tibble: 99,021 x 5
   Students Level  School            Gender EthnicGroup
      <dbl> <chr>  <chr>             <chr>  <chr>      
 1        1 Year 1 Abbotsford School Female Asian      
 2       19 Year 1 Abbotsford School Female European   
 3       14 Year 1 Abbotsford School Male   European   
 4       10 Year 1 Abbotsford School Female Māori      
 5        6 Year 1 Abbotsford School Male   Māori      
 6        1 Year 2 Abbotsford School Female Asian      
 7       15 Year 2 Abbotsford School Female European   
 8       19 Year 2 Abbotsford School Male   European   
 9        3 Year 2 Abbotsford School Female Māori      
10        2 Year 2 Abbotsford School Male   Māori      
# ... with 99,011 more rows
```

---

# select

```r
roll %>% select(starts_with("S"))
```

```
# A tibble: 99,021 x 2
   School            Students
   <chr>                <dbl>
 1 Abbotsford School        1
 2 Abbotsford School       19
 3 Abbotsford School       14
 4 Abbotsford School       10
 5 Abbotsford School        6
 6 Abbotsford School        1
 7 Abbotsford School       15
 8 Abbotsford School       19
 9 Abbotsford School        3
10 Abbotsford School        2
# ... with 99,011 more rows
```

---

# rename

```r
roll %>% rename(Number = Students)
```

```
# A tibble: 99,021 x 5
   School            Gender EthnicGroup Level  Number
   <chr>             <chr>  <chr>       <chr>   <dbl>
 1 Abbotsford School Female Asian       Year 1      1
 2 Abbotsford School Female European    Year 1     19
 3 Abbotsford School Male   European    Year 1     14
 4 Abbotsford School Female Māori       Year 1     10
 5 Abbotsford School Male   Māori       Year 1      6
 6 Abbotsford School Female Asian       Year 2      1
 7 Abbotsford School Female European    Year 2     15
 8 Abbotsford School Male   European    Year 2     19
 9 Abbotsford School Female Māori       Year 2      3
10 Abbotsford School Male   Māori       Year 2      2
# ... with 99,011 more rows
```

---

# mutate

```r
roll %>% mutate(Proportion = Students/n())
```

```
# A tibble: 99,021 x 6
   School            Gender EthnicGroup Level  Students Proportion
   <chr>             <chr>  <chr>       <chr>     <dbl>      <dbl>
 1 Abbotsford School Female Asian       Year 1        1  0.0000101
 2 Abbotsford School Female European    Year 1       19  0.000192 
 3 Abbotsford School Male   European    Year 1       14  0.000141 
 4 Abbotsford School Female Māori       Year 1       10  0.000101 
 5 Abbotsford School Male   Māori       Year 1        6  0.0000606
 6 Abbotsford School Female Asian       Year 2        1  0.0000101
 7 Abbotsford School Female European    Year 2       15  0.000151 
 8 Abbotsford School Male   European    Year 2       19  0.000192 
 9 Abbotsford School Female Māori       Year 2        3  0.0000303
10 Abbotsford School Male   Māori       Year 2        2  0.0000202
# ... with 99,011 more rows
```

---

# mutate

```r
clean = roll %>% mutate(Level = substring(Level, 6),
                        Level = as.numeric(Level))
clean
```

```
# A tibble: 99,021 x 5
   School            Gender EthnicGroup Level Students
   <chr>             <chr>  <chr>       <dbl>    <dbl>
 1 Abbotsford School Female Asian           1        1
 2 Abbotsford School Female European        1       19
 3 Abbotsford School Male   European        1       14
 4 Abbotsford School Female Māori           1       10
 5 Abbotsford School Male   Māori           1        6
 6 Abbotsford School Female Asian           2        1
 7 Abbotsford School Female European        2       15
 8 Abbotsford School Male   European        2       19
 9 Abbotsford School Female Māori           2        3
10 Abbotsford School Male   Māori           2        2
# ... with 99,011 more rows
```
…
```
[1] "grouped_df" "tbl_df"     "tbl"        "data.frame"
```

---

# group_by

```r
clean %>% group_by(School) %>%
  summarise(Students = sum(Students))
```

```
# A tibble: 2,530 x 2
   School                                Students
   <chr>                                    <dbl>
 1 Abbotsford School                          277
 2 Aberdeen School                            719
 3 Aberfeldy School                            15
 4 ACG New Zealand International College      658
 5 ACG Parnell College                        802
 6 ACG Senior College                         229
 7 ACG Strathallan                            884
 8 ACG Sunderland                             322
 9 ACG Tauranga                               121
10 Addington School                           242
# ... with 2,520 more rows
```
…
# group_by

```r
clean %>%
  filter(Level >= 11) %>%
  group_by(School, Level) %>%
  summarise(Students = sum(Students))
```

```
# A tibble: 1,822 x 3
# Groups:   School [?]
   School                                Level Students
   <chr>                                 <dbl>    <dbl>
 1 ACG New Zealand International College    11       99
 2 ACG New Zealand International College    12       36
 3 ACG New Zealand International College    13       84
 4 ACG New Zealand International College    14      400
 5 ACG Parnell College                      11       93
 6 ACG Parnell College                      12      112
 7 ACG Parnell College                      13      107
 8 ACG Parnell College                      14       20
 9 ACG Senior College                       11       46
10 ACG Senior College                       12      105
# ... with 1,812 more rows
```
…
# group_by

```r
clean %>%
  filter(EthnicGroup == "Pasifika") %>%
  group_by(School, Gender) %>%
  summarise(Students = sum(Students)) %>%
  mutate(Total = sum(Students)) %>%
  arrange(desc(Total))
```

```
# A tibble: 3,488 x 4
# Groups:   School [1,965]
   School                Gender Students Total
   <chr>                 <chr>     <dbl> <dbl>
 1 Southern Cross Campus Female      656  1284
 2 Southern Cross Campus Male        628  1284
 3 Manurewa High School  Female      551  1098
 4 Manurewa High School  Male        547  1098
 5 Aorere College        Female      432   864
 6 Aorere College        Male        432   864
 7 De La Salle College   Male        863   863
 8 Otahuhu College       Female      339   714
 9 Otahuhu College       Male        375   714
10 Avondale College      Female      374   706
# ... with 3,478 more rows
```
…
# spread

```r
clean %>%
  filter(EthnicGroup == "Pasifika") %>%
  group_by(School, Gender) %>%
  summarise(Students = sum(Students)) %>%
  spread(Gender, Students) %>%
  mutate(Total = Male + Female) %>%
  arrange(desc(Total))
```

```
# A tibble: 1,965 x 4
# Groups:   School [1,965]
   School                   Female  Male Total
   <chr>                     <dbl> <dbl> <dbl>
 1 Southern Cross Campus       656   628  1284
 2 Manurewa High School        551   547  1098
 3 Aorere College              432   432   864
 4 Otahuhu College             339   375   714
 5 Avondale College            374   332   706
 6 Tangaroa College            314   322   636
 7 Mt Albert Grammar School    261   318   579
 8 Viscount School             290   250   540
 9 Onehunga High School        283   256   539
10 Mangere College             263   261   524
# ... with 1,955 more rows
```
…
`left_join` is the one I use the most.
---
# left_join

```r
clean %>% group_by(School) %>%
  summarise(Students = sum(Students)) %>%
  left_join(schools, by='School') %>%
  select(School, Students, TerritorialAuthority)
```

```
# A tibble: 2,530 x 3
   School                               Students TerritorialAuthority     
   <chr>                                   <dbl> <chr>                    
 1 Abbotsford School                         277 Dunedin                  
 2 Aberdeen School                           719 Hamilton                 
 3 Aberfeldy School                           15 Wanganui                 
 4 ACG New Zealand International Colle…      658 Auckland: Waitemata      
 5 ACG Parnell College                       802 Auckland: Waitemata      
 6 ACG Senior College                        229 Auckland: Waitemata      
 7 ACG Strathallan                           884 Auckland: Papakura       
 8 ACG Sunderland                            322 Auckland: Henderson-Mass…
 9 ACG Tauranga                              121 Western Bay of Plenty    
10 Addington School                          242 Christchurch             
# ... with 2,520 more rows
```
…
